<?xml version="1.0" encoding="UTF-8"?>
<session version="1.0">
<refactoring comment="Delete resource &apos;TP1SW&apos;" deleteContents="false" description="Delete resource &apos;TP1SW&apos;" element1="/TP1SW" flags="7" id="org.eclipse.ltk.core.refactoring.delete.resources" resources="1" stamp="1569332824021"/>
</session>